3-functional-units/out_iter.txt
VCD info: dumpfile multiplier_iterative.vcd opened for output.
a=         0, b=         0, r=                   0,  time=                 676
a=         1, b=         1, r=                   1,  time=                1356
a=         2, b=         2, r=                   4,  time=                2036
a=         3, b=         3, r=                   9,  time=                2716
a=         4, b=         4, r=                  16,  time=                3396
a=         5, b=         5, r=                  25,  time=                4076
a=         6, b=         6, r=                  36,  time=                4756
a=         7, b=         7, r=                  49,  time=                5436
a=         8, b=         8, r=                  64,  time=                6116
a=         9, b=         9, r=                  81,  time=                6796
a=        10, b=        10, r=                 100,  time=                7476
a=        11, b=        11, r=                 121,  time=                8156
a=        12, b=        12, r=                 144,  time=                8836
a=        13, b=        13, r=                 169,  time=                9516
a=        14, b=        14, r=                 196,  time=               10196
a=        15, b=        15, r=                 225,  time=               10876
a=        16, b=        16, r=                 256,  time=               11556
a=        17, b=        17, r=                 289,  time=               12236
a=        18, b=        18, r=                 324,  time=               12916
a=        19, b=        19, r=                 361,  time=               13596
a=        20, b=        20, r=                 400,  time=               14276
a=        21, b=        21, r=                 441,  time=               14956
a=        22, b=        22, r=                 484,  time=               15636
a=        23, b=        23, r=                 529,  time=               16316
a=        24, b=        24, r=                 576,  time=               16996
a=        25, b=        25, r=                 625,  time=               17676
a=        26, b=        26, r=                 676,  time=               18356
a=        27, b=        27, r=                 729,  time=               19036
a=        28, b=        28, r=                 784,  time=               19716
a=        29, b=        29, r=                 841,  time=               20396
a=        30, b=        30, r=                 900,  time=               21076
a=        31, b=        31, r=                 961,  time=               21756
a=        32, b=        32, r=                1024,  time=               22436
a=        33, b=        33, r=                1089,  time=               23116
a=        34, b=        34, r=                1156,  time=               23796
a=        35, b=        35, r=                1225,  time=               24476
a=        36, b=        36, r=                1296,  time=               25156
a=        37, b=        37, r=                1369,  time=               25836
a=        38, b=        38, r=                1444,  time=               26516
a=        39, b=        39, r=                1521,  time=               27196
a=        40, b=        40, r=                1600,  time=               27876
a=        41, b=        41, r=                1681,  time=               28556
a=        42, b=        42, r=                1764,  time=               29236
a=        43, b=        43, r=                1849,  time=               29916
a=        44, b=        44, r=                1936,  time=               30596
a=        45, b=        45, r=                2025,  time=               31276
a=        46, b=        46, r=                2116,  time=               31956
a=        47, b=        47, r=                2209,  time=               32636
a=        48, b=        48, r=                2304,  time=               33316
a=        49, b=        49, r=                2401,  time=               33996
a=        50, b=        50, r=                2500,  time=               34676
a=        51, b=        51, r=                2601,  time=               35356
a=        52, b=        52, r=                2704,  time=               36036
a=        53, b=        53, r=                2809,  time=               36716
a=        54, b=        54, r=                2916,  time=               37396
a=        55, b=        55, r=                3025,  time=               38076
a=        56, b=        56, r=                3136,  time=               38756
a=        57, b=        57, r=                3249,  time=               39436
a=        58, b=        58, r=                3364,  time=               40116
a=        59, b=        59, r=                3481,  time=               40796
a=        60, b=        60, r=                3600,  time=               41476
a=        61, b=        61, r=                3721,  time=               42156
a=        62, b=        62, r=                3844,  time=               42836
a=        63, b=        63, r=                3969,  time=               43516
a=        64, b=        64, r=                4096,  time=               44196
a=        65, b=        65, r=                4225,  time=               44876
a=        66, b=        66, r=                4356,  time=               45556
a=        67, b=        67, r=                4489,  time=               46236
a=        68, b=        68, r=                4624,  time=               46916
a=        69, b=        69, r=                4761,  time=               47596
a=        70, b=        70, r=                4900,  time=               48276
a=        71, b=        71, r=                5041,  time=               48956
a=        72, b=        72, r=                5184,  time=               49636
a=        73, b=        73, r=                5329,  time=               50316
a=        74, b=        74, r=                5476,  time=               50996
a=        75, b=        75, r=                5625,  time=               51676
a=        76, b=        76, r=                5776,  time=               52356
a=        77, b=        77, r=                5929,  time=               53036
a=        78, b=        78, r=                6084,  time=               53716
a=        79, b=        79, r=                6241,  time=               54396
a=        80, b=        80, r=                6400,  time=               55076
a=        81, b=        81, r=                6561,  time=               55756
a=        82, b=        82, r=                6724,  time=               56436
a=        83, b=        83, r=                6889,  time=               57116
a=        84, b=        84, r=                7056,  time=               57796
a=        85, b=        85, r=                7225,  time=               58476
a=        86, b=        86, r=                7396,  time=               59156
a=        87, b=        87, r=                7569,  time=               59836
a=        88, b=        88, r=                7744,  time=               60516
a=        89, b=        89, r=                7921,  time=               61196
a=        90, b=        90, r=                8100,  time=               61876
a=        91, b=        91, r=                8281,  time=               62556
a=        92, b=        92, r=                8464,  time=               63236
a=        93, b=        93, r=                8649,  time=               63916
a=        94, b=        94, r=                8836,  time=               64596
a=        95, b=        95, r=                9025,  time=               65276
a=        96, b=        96, r=                9216,  time=               65956
a=        97, b=        97, r=                9409,  time=               66636
a=        98, b=        98, r=                9604,  time=               67316
a=        99, b=        99, r=                9801,  time=               67996
a=       100, b=       100, r=               10000
a= 591751149, b= 878082293, r=  519606205799304657
a=1183502198, b=1756164486, r= 2078424529230540228
a=1775253247, b=2634246679, r= 4676454970293716713
a=2367004296, b=3512328872, r= 8313697528988834112
a=2958755345, b=  95443769, r=  282394761675695305
a=3550506394, b= 973525962, r= 3456510152806001028
a=4142257443, b=1851608155, r= 7669837661568247665
a= 439041196, b=2729690348, r= 1198446515095576208
a=1030792245, b=3607772541, r= 3718863956986744545
a=1622543294, b= 190887438, r=  309723132435740772
a=2214294343, b=1068969631, r= 2367013406762097433
a=2806045392, b=1947051824, r= 5463515798720395008
a=3397796441, b=2825134017, r= 9599230308310633497
a=3989547490, b=3703216210, r=14774156935532812900
a= 286331243, b= 286331107, r=   81985541776876001
a= 878082292, b=1164413300, r= 1022450699299283600
a=1469833341, b=2042495493, r= 3002127974453632113
a=2061584390, b=2920577686, r= 6021017367239921540
a=2653335439, b=3798659879, r=10079118877658151881
a=3245086488, b= 381774776, r= 1238892167056826688
a=3836837537, b=1259856969, r= 4833866509910245353
a= 133621290, b=2137939162, r=  285674188767958980
a= 725372339, b=3016021355, r= 2187738464750299345
a=1317123388, b=3894103548, r= 5129014858364580624
a=1908874437, b= 477218445, r=  910950090525390465
a=2500625486, b=1355300638, r= 3389099316574860068
a=3092376535, b=2233382831, r= 6906460660256270585
a=3684127584, b=3111465024, r=11463034121569622016
a=4275878633, b=3989547217, r=17058819700514914361
a= 572662386, b= 572662114, r=  327942052575044004
a=1164413435, b=1450744307, r= 1689266161820564545
a=1756164484, b=2328826500, r= 4089802388698026000
a=2347915533, b=3206908693, r= 7529550733207428369
a=2939666582, b=4084990886, r=12008511195348771652
a=3531417631, b= 668105783, r= 2359360541459260073
a=4123168680, b=1546187976, r= 6375193836035791680
a= 419952433, b=2424270169, r= 1018078155720871177
a=1011703482, b=3302352362, r= 3341001383426324484
a=1603454531, b=4180434555, r= 6703136728763718705
a=2195205580, b= 763549452, r= 1676148017636342160
a=2786956629, b=1641631645, r= 4575156195408924705
a=3378707678, b=2519713838, r= 8513376490813448164
a=3970458727, b=3397796031, r=13490808903849912537
a= 267242480, b=4275878224, r= 1142696300759755520
a= 858993529, b= 858993121, r=  737869532394514009
a=1450744578, b=1737075314, r= 2520052593363147492
a=2042495627, b=2615157507, r= 5341447771963721889
a=2634246676, b=3493239700, r= 9202055068196237200
a=3225997725, b=  76354597, r=  246319756215291825
a=3817748774, b= 954436790, r= 3643799884882995460
a= 114532527, b=1832518983, r=  209883029898460041
a= 706283576, b=2710601176, r= 1914453091695085376
a=1298034625, b=3588683369, r= 4658235271123651625
a=1889785674, b= 171798266, r=  324661901904841284
a=2481536723, b=1049880459, r= 2605316913768595857
a=3073287772, b=1927962652, r= 5925184043264291344
a=3665038821, b=2806044845, r=10284263290391927745
a=4256789870, b=3684127038, r=15682554655151505060
a= 553573623, b= 267241935, r=  147938086175480505
a=1145324672, b=1145324128, r= 1311767981235286016
a=1737075721, b=2023406321, r= 3514809993927032441
a=2328826770, b=2901488514, r= 6757064124250719780
a=2920577819, b=3779570707, r=11038530372206348033
a=3512328868, b= 362685604, r= 1273871116937216272
a=4104079917, b=1240767797, r= 5092210197328032849
a= 400863670, b=2118849990, r=  849369983170863300
a= 992614719, b=2996932183, r= 2974798996690601577
a=1584365768, b=3875014376, r= 6139440127842280768
a=2176116817, b= 458129273, r=  996942815335284041
a=2767867866, b=1336211466, r= 3698456778922151556
a=3359618915, b=2214293659, r= 7439182860140959985
a=3951369964, b=3092375852, r=12219121058991709328
a= 248153717, b=3970458045, r=  985283922059303265
a= 839904766, b= 553572942, r=  464948552314441572
a=1431655815, b=1431655135, r= 2049637399097360025
a=2023406864, b=2309737328, r= 4673538363512219392
a=2615157913, b=3187819521, r= 8336651445559019673
a=3206908962, b=4065901714, r=13038976645237760868
a=3798660011, b= 649016611, r= 2465393446680442721
a=  95443764, b=1527098804, r=  145752057853658256
a= 687194813, b=2405180997, r= 1652827905464568561
a=1278945862, b=3283263190, r= 4199115870707419780
a=1870696911, b=4161345383, r= 7784615953582211913
a=2462447960, b= 744460280, r= 1833194697787028800
a=3054199009, b=1622542473, r= 4955567613097009257
a=3645950058, b=2500624666, r= 9117152646038930628
a=4237701107, b=3378706859, r=14317949796612792913
a= 534484860, b=4256789052, r= 2275189300507752720
a=1126235909, b= 839903949, r=  945929987474704641
a=1717986958, b=1717986142, r= 2951477785980736036
a=2309738007, b=2596068335, r= 5996237702118708345
a=2901489056, b=3474150528, r=10080209735888621568
a=3493240105, b=  57265425, r=  200041879239869625
a=4084991154, b= 935347618, r= 3820886745444971172
a= 381774907, b=1813429811, r=  692321997445552577
a= 973525956, b=2691512004, r= 2620256796779575824
a=1565277005, b=3569594197, r= 5587403713745539985
a=2157028054, b= 152709094, r=  329397799858923076
a=2748779103, b=1030791287, r= 2833417549260075561
Finished. Total time =               135996
